<?xml version="1.0" encoding="UTF-8"?>
<svg width="40px" height="40px" viewBox="0 0 40 40" version="1.1" xmlns="http://www.w3.org/2000/svg" xmlns:xlink="http://www.w3.org/1999/xlink">
    <!-- Generator: Sketch 54.1 (76490) - https://sketchapp.com -->
    <title>corretto</title>
    <desc>Created with Sketch.</desc>
    <g id="corretto" stroke="none" stroke-width="1" fill="none" fill-rule="evenodd">
        <g id="baseline-done_all-24px-copy">
            <polygon id="Path" points="0 0 40 0 40 40 0 40"></polygon>
            <path d="M30,11.6666667 L27.65,9.31666667 L17.0833333,19.8833333 L19.4333333,22.2333333 L30,11.6666667 Z M37.0666667,9.31666667 L19.4333333,26.95 L12.4666667,20 L10.1166667,22.35 L19.4333333,31.6666667 L39.4333333,11.6666667 L37.0666667,9.31666667 Z M0.683333333,22.35 L10,31.6666667 L12.35,29.3166667 L3.05,20 L0.683333333,22.35 Z" id="Shape" fill="#569D0A" fill-rule="nonzero"></path>
        </g>
    </g>
</svg>